{
  "url": "https://github.com/NixOS/nixpkgs",
  "rev": "9b1c7ba323732ddc85a51850a7f10ecc5269b8e9",
  "date": "2022-03-07T18:58:33+01:00",
  "path": "/nix/store/0c1wy77vsrs7kk15vgj3wwaqmp9r5a4q-nixpkgs",
  "sha256": "12m4bkbqdnwxq607w58fqnmx8wnii2f6g2rjlb4wwp79apkrzwb6",
  "fetchLFS": false,
  "fetchSubmodules": false,
  "deepClone": false,
  "leaveDotGit": false
}
