{
  "url": "https://github.com/NixOS/nixpkgs",
  "rev": "cc16da2c92041cbe817c40f62aac87c99104e9c2",
  "date": "2022-07-04T19:29:36+02:00",
  "path": "/nix/store/7nx87ffbhlvkb4kl3cgsh4jcia3bznjk-nixpkgs",
  "sha256": "1m2h6wszfvmyzjd64imzi8b1acf5s5yqj7swqm3bk8myp7mjx8ym",
  "fetchLFS": false,
  "fetchSubmodules": false,
  "deepClone": false,
  "leaveDotGit": false
}
